…
Simulated data were generated using the `simulate_multilevel_data`
function. We simulate a set of model parameters, setting
$\mu^{({global})} = 0$, and $\sigma_{country} = 0.5$, creating 30
countries, and national data, using $\sigma_{y} = 0.1$.

In the simulated data, `level1` refers to the country level. The data
sets contain the simulated parameters (`eta`; the deviation away from
the global mean) and data (`y`):

``` r
dat_nat |> dplyr::select(level1,  mu_global, level1_eta, y)
```

    ## # A tibble: 6,000 × 4
    ##    level1 mu_global level1_eta     y
    ##    <fct>      <dbl>      <dbl> <dbl>
    ##  1 1              0      0.293 0.179
    ##  2 1              0      0.293 0.323
    ##  3 1              0      0.293 0.356
    ##  4 1              0      0.293 0.279
    ##  5 1              0      0.293 0.254
    ##  6 1              0      0.293 0.258
    ##  7 1              0      0.293 0.479
    ##  8 1              0      0.293 0.178
    ##  9 1              0      0.293 0.206
    ## 10 1              0      0.293 0.190
    ## # ℹ 5,990 more rows
…
Input data are processed using the function `get_geo_unit_index_data`.
This function obtains unique hierarchical groupings from the input data
and assigns an index `c` to each unique grouping:

``` r
geo_unit_index <- get_geo_unit_index_data(
  dat_nat,
  hierarchical_levels = hierarchical_level,
  area = "level1"
)
geo_unit_index
```

    ## # A tibble: 30 × 2
    ##    level1     c
    ##    <fct>  <int>
    ##  1 1          1
    ##  2 2          2
    ##  3 3          3
    ##  4 4          4
    ##  5 5          5
    ##  6 6          6
    ##  7 7          7
    ##  8 8          8
    ##  9 9          9
    ## 10 10        10
    ## # ℹ 20 more rows
…
``` r
res_local <- posterior_summary_hierparam_localhierarchy(
  fit = fit_local, parname = "mu")
```

    ## [1] "Calculating posterior summary for hierarchical parameters"
    ## [1] "This can take a little while"

Example output for the global model is as follows:

``` r
res_local$level1
```

    ## # A tibble: 90 × 3
    ##    name      val quant
    ##    <chr>   <dbl> <dbl>
    ##  1 1      0.278  0.025
    ##  2 1      0.293  0.5  
    ##  3 1      0.306  0.975
    ##  4 2      0.334  0.025
    ##  5 2      0.348  0.5  
    ##  6 2      0.361  0.975
    ##  7 3     -0.0779 0.025
    ##  8 3     -0.0640 0.5  
    ##  9 3     -0.0497 0.975
    ## 10 4     -0.248  0.025
    ## # ℹ 80 more rows
…
